%YAML 1.1
%TAG !u! tag:unity3d.com,2011:
--- !u!114 &11400000
MonoBehaviour:
  m_ObjectHideFlags: 0
  m_CorrespondingSourceObject: {fileID: 0}
  m_PrefabInstance: {fileID: 0}
  m_PrefabAsset: {fileID: 0}
  m_GameObject: {fileID: 0}
  m_Enabled: 1
  m_EditorHideFlags: 0
  m_Script: {fileID: 11500000, guid: bfcc699d4ce4dfa4c80bcf6b3a2331a0, type: 3}
  m_Name: Accept
  m_EditorClassIdentifier: 
  storyText: "\u0412\u044B \u0441\u0430\u0434\u0438\u0442\u0435\u0441\u044C \u0432
    \u043A\u0430\u0440\u0430\u0432\u0430\u043D \u0438 \u043E\u0442\u043F\u0440\u0430\u0432\u043B\u044F\u0435\u0442\u0435\u0441\u044C
    \u0432 \u043F\u0443\u0442\u044C.\r\n\r\n\u0414\u043E\u0440\u043E\u0433\u0430
    \u0434\u043E \u0433\u043E\u0440\u043E\u0434\u0430 \u0437\u0430\u0439\u043C\u0435\u0442
    \u043D\u0435\u0441\u043A\u043E\u043B\u044C\u043A\u043E \u0441\u0443\u0442\u043E\u043A.\r\n\r\n\u0417\u0430
    \u0442\u0435 \u043D\u0435\u0441\u043A\u043E\u043B\u044C\u043A\u043E \u0447\u0430\u0441\u043E\u0432
    \u0432 \u043F\u0443\u0442\u0438 \u0432\u044B \u043F\u043E\u043A\u0430 \u043D\u0435
    \u0441\u043A\u0430\u0437\u0430\u043B\u0438 \u043D\u0438 \u043E\u0434\u043D\u043E\u0433\u043E
    \u0441\u043B\u043E\u0432\u0430.\r\n\r\n\u0412\u044B \u0441\u0438\u0434\u0438\u0442\u0435
    \u0441\u043E \u0432\u0441\u0435\u0439 \u0441\u0435\u0440\u044C\u0435\u0437\u043D\u043E\u0441\u0442\u044C\u044E
    \u0438 \u0442\u043E \u0438 \u0434\u0435\u043B\u043E \u043E\u0442 \u0441\u043A\u0443\u043A\u0438
    \u0432\u044B\u0442\u044F\u0433\u0438\u0432\u0430\u0435\u0442\u0435 \u043A\u0430\u0442\u0430\u043D\u0443
    \u0438\u0437 \u0447\u0435\u0445\u043B\u0430.\r\n\r\n\u0412 \u0438\u0442\u043E\u0433\u0435
    \u043A \u0432\u0430\u043C \u0440\u0435\u0448\u0438\u043B\u0441\u044F \u0437\u0430\u0433\u043E\u0432\u043E\u0440\u0438\u0442\u044C 
    \u043F\u0435\u0440\u0432\u044B\u043C \u0445\u043E\u0437\u044F\u0438\u043D \u043A\u0430\u0440\u0430\u0432\u0430\u043D\u0430:\r\n\r\n\"\u0417\u0430\u0431\u044B\u043B
    \u043F\u0440\u0435\u0434\u0441\u0442\u0430\u0432\u0438\u0442\u044C\u0441\u044F,
    \u043C\u0435\u043D\u044F \u0437\u043E\u0432\u0443\u0442 \u0422\u0430\u043A\u0443\u043C\u0438
    \u041E\u0434\u0437\u0430\u0432\u0430. \u042F \u044F\u0432\u043B\u044F\u044E\u0441\u044C 
    \u0442\u043E\u0440\u0433\u043E\u0432\u0446\u0435\u043C. \u041C\u044B \u0441 \u043C\u043E\u0435\u0439
    \u0441\u0435\u043C\u044C\u0435\u0439 \u0434\u0430\u0432\u043D\u043E \u0437\u0430\u043D\u0438\u043C\u0430\u0435\u043C\u0441\u044F
    \u0442\u043E\u0440\u0433\u043E\u0432\u043B\u0435\u0439, \u043D\u043E \u0442\u043E
    \u0447\u0442\u043E \u043F\u0440\u043E\u0438\u0437\u043E\u0448\u043B\u043E \u0441
    \u043D\u0430\u043C\u0438 \u0432\u043F\u0435\u0440\u0432\u044B\u0435. \u0421\u043B\u0430\u0432\u0430
    \u0431\u043E\u0433\u0443, \u0447\u0442\u043E \u0432\u044B \u0431\u044B\u043B\u0438
    \u0440\u044F\u0434\u043E\u043C \u0441 \u043D\u0430\u043C\u0438 \u0438 \u0441\u043F\u0430\u0441\u043B\u0438
    \u043D\u0430\u0441. \u042F \u0434\u0430\u0436\u0435 \u043D\u0435 \u043F\u0440\u0435\u0434\u0441\u0442\u0430\u0432\u043B\u044F\u044E
    \u0447\u0442\u043E \u0431\u044B\u043B\u043E \u0431\u044B \u0441 \u043D\u0430\u043C\u0438\""
  nextStates: []
