%YAML 1.1
%TAG !u! tag:unity3d.com,2011:
--- !u!114 &11400000
MonoBehaviour:
  m_ObjectHideFlags: 0
  m_CorrespondingSourceObject: {fileID: 0}
  m_PrefabInstance: {fileID: 0}
  m_PrefabAsset: {fileID: 0}
  m_GameObject: {fileID: 0}
  m_Enabled: 1
  m_EditorHideFlags: 0
  m_Script: {fileID: 11500000, guid: bfcc699d4ce4dfa4c80bcf6b3a2331a0, type: 3}
  m_Name: Cancel
  m_EditorClassIdentifier: 
  storyText: "\u0412\u044B \u0433\u043E\u0432\u043E\u0440\u0438\u0442\u0435 \u0447\u0442\u043E
    \u0441 \u0443\u0434\u043E\u0432\u043E\u043B\u044C\u0441\u0442\u0432\u0438\u0435\u043C
    \u043F\u043E\u0448\u043B\u0438 \u0438 \u0437\u0430\u0449\u0438\u0442\u0438\u043B\u0438
    \u044D\u0442\u0438\u0445 \u043B\u044E\u0434\u0435\u0439 \u0434\u043E \u0433\u043E\u0440\u043E\u0434\u0430
    ,\u043D\u043E \u0443 \u0432\u0430\u0441 \u0431\u043E\u043B\u0435\u0435 \u0432\u0430\u0436\u043D\u044B\u0435
    \u0434\u0435\u043B\u0430.\r\n\r\n\u041D\u0430 \u0447\u0442\u043E \u0445\u043E\u0437\u044F\u0438\u043D
    \u043A\u0430\u0440\u0430\u0432\u0430\u043D\u0430 \u043F\u044B\u0442\u0430\u0435\u0442\u0441\u044F
    \u0443\u043C\u043E\u043B\u044F\u0442\u044C \u0432\u0430\u0441 \u043E \u043F\u043E\u043C\u043E\u0449\u0438,
    \u0433\u043E\u0432\u043E\u0440\u0438\u0442 \u0447\u0442\u043E \u0433\u043E\u0442\u043E\u0432
    \u0437\u0430\u043F\u043B\u0430\u0442\u0438\u0442\u044C \u0437\u0430 \u0437\u0430\u0449\u0438\u0442\u0443\r\n\r\n\u0412\u044B
    \u043D\u0430\u0447\u0438\u043D\u0430\u0435\u0442\u0435 \u0441\u043E\u043C\u043D\u0435\u0432\u0430\u0442\u044C\u0441\u044F
    \u0432 \u0441\u0432\u043E\u0435\u043C \u0432\u044B\u0431\u043E\u0440\u0435 \u0438 
    \u043F\u044B\u0442\u0430\u0435\u0442\u0435\u0441\u044C \u0432\u0437\u0432\u0435\u0441\u0438\u0442\u044C
    \u0432\u0441\u0435.\r\n\r\n\u0418 \u0437\u0434\u0435\u0441\u044C \u0432\u044B
    \u0443\u0432\u0438\u0434\u0435\u043B\u0438 \u043A\u0430\u043A \u0438\u0437 \u043A\u0430\u0440\u0430\u0432\u0430\u043D\u0430
    \u0432\u044B\u0448\u043B\u0430 \u043C\u043E\u043B\u043E\u0434\u0430\u044F \u0434\u0435\u0432\u0443\u0448\u043A\u0430 
    \u0438 \u043F\u043E\u0434\u043E\u0448\u043B\u0430 \u043A \u0445\u043E\u0437\u044F\u0438\u043D\u0443
    \u0438 \u0441\u043F\u0440\u043E\u0441\u0438\u043B\u0430:\r\n\"\u041E\u0442\u0435\u0446
    \u0432\u0441\u0435 \u043B\u0438 \u0432 \u043F\u043E\u0440\u044F\u0434\u043A\u0435?\"\r\n\r\n\u0412\u043D\u0443\u0442\u0440\u0438
    \u0432\u0430\u0448\u0435\u0433\u043E \u0441\u0443\u0440\u043E\u0432\u043E\u0433\u043E
    \u0441\u0430\u043C\u0443\u0440\u0430\u0439\u0441\u043A\u043E\u0433\u043E \u0434\u0443\u0445\u0430
    \u0447\u0442\u043E-\u0442\u043E \u043F\u0440\u043E\u0431\u0443\u0434\u0438\u043B\u043E\u0441\u044C,
    \u0432\u043E\u0437\u043C\u043E\u0436\u043D\u043E \u0432\u044B \u0432\u043B\u044E\u0431\u0438\u043B\u0438\u0441\u044C
    \u0438\u043B\u0438 \u043E\u0447\u0430\u0440\u043E\u0432\u044B\u0432\u0430\u043B\u0438\u0441\u044C
    \u0434\u0430\u043D\u043D\u043E\u0439 \u0434\u0435\u0432\u0443\u0448\u043A\u043E\u0439.\r\n\r\n\u0412
    \u043A\u043E\u043D\u0435\u0447\u043D\u043E\u043C \u0441\u0447\u0435\u0442\u0435
    \u0432\u044B \u0441\u043E\u0433\u043B\u0430\u0441\u0438\u043B\u0438\u0441\u044C
    \u0441\u043E\u043F\u0440\u043E\u0432\u043E\u0436\u0434\u0430\u0442\u044C \u043A\u0430\u0440\u0430\u0432\u0430\u043D
    \u0441 \u0441\u0435\u043C\u044C\u0435\u0439.\r\n\r\n\u0418 \u0440\u0435\u0448\u0438\u043B\u0438\u0441\u044C
    \u0447\u0442\u043E \u043A\u043E\u0433\u0434\u0430 \u043E\u043A\u0430\u0436\u0438\u0442\u0435\u0441\u044C
    \u0432 \u0433\u043E\u0440\u043E\u0434\u0435 \u0442\u043E \u043F\u043E\u043F\u044B\u0442\u0430\u0435\u0442\u0435\u0441\u044C
    \u0443\u0437\u043D\u0430\u0442\u044C \u0438\u043D\u0442\u0435\u0440\u0435\u0441\u0443\u044E\u0449\u0443\u044E
    \u0432\u0430\u0441 \u0438\u043D\u0444\u043E\u0440\u043C\u0430\u0446\u0438\u044E\r\n\r\n1.
    \u041F\u0440\u043E\u0434\u043E\u043B\u0436\u0438\u0442\u044C \u0438\u0441\u0442\u043E\u0440\u0438\u044E"
  nextStates:
  - {fileID: 11400000, guid: 9b4ff06f49262f448b4142b37f23054d, type: 2}
